…
a = simulation(100, 40, c(6, 3, 2))
```

    ## [1] 7
    ## Start:  AIC=45.89
    ## response ~ data

``` r
a
```

    ## $beta
    ## # A tibble: 40 x 5
    ##    `true beta` `lr coefficient` `step coefficient` `lasso coefficien… type 
    ##          <dbl>            <dbl>              <dbl>              <dbl> <chr>
    ##  1      -0.603           -0.757             -0.757             -0.624 stro…
    ##  2       0.400            0.467              0.467              0.258 stro…
    ##  3      -0.365           -0.338             -0.338             -0.347 stro…
    ##  4       0.300            0.340              0.340              0.346 stro…
    ##  5       0.324            0.446              0.446              0.234 stro…
    ##  6      -0.251           -0.295             -0.295             -0.280 stro…
    ##  7      -0.390           -0.441             -0.441             -0.317 stro…
    ##  8      -0.379           -0.310             -0.310             -0.140 stro…
    ##  9       0.335            0.460              0.460              0.260 stro…
    ## 10       0.474            0.357              0.357              0.251 stro…
    ## # … with 30 more rows
    ## 
    ## $data
    ##                 V1          V2          V3          V4           V5
    ##   [1,]  1.40267708  0.55623586  0.05247603  0.26003421  1.549979124
    ##   [2,]  1.72858978  0.86688422  1.00201348  1.51296799  0.224939237
    ##   [3,]  1.31028915  1.41096848  1.64132127  0.78244248  0.995772039
    ##   [4,]  0.49239706  1.06999837  0.40524225  0.17573892  1.490148805
    ##   [5,]  0.02871323 -0.37056378  0.23381136  0.99883196  0.564059956
…
